<?xml version="1.0" encoding="UTF-8" standalone="no"?>
<!-- Created with Inkscape (http://www.inkscape.org/) -->

<svg
   xmlns:osb="http://www.openswatchbook.org/uri/2009/osb"
   xmlns:dc="http://purl.org/dc/elements/1.1/"
   xmlns:cc="http://creativecommons.org/ns#"
   xmlns:rdf="http://www.w3.org/1999/02/22-rdf-syntax-ns#"
   xmlns:svg="http://www.w3.org/2000/svg"
   xmlns="http://www.w3.org/2000/svg"
   xmlns:xlink="http://www.w3.org/1999/xlink"
   xmlns:sodipodi="http://sodipodi.sourceforge.net/DTD/sodipodi-0.dtd"
   xmlns:inkscape="http://www.inkscape.org/namespaces/inkscape"
   width="292.64478mm"
   height="128.57373mm"
   viewBox="0 0 292.64478 128.57373"
   version="1.1"
   id="svg8"
   inkscape:version="0.92.3 (2405546, 2018-03-11)"
   sodipodi:docname="columns-02.svg">
  <defs
     id="defs2">
    <inkscape:path-effect
       only_selected="false"
       apply_with_weight="true"
       apply_no_weight="true"
       helper_size="0"
       steps="2"
       weight="33.333333"
       is_visible="true"
       id="path-effect913"
       effect="bspline" />
    <inkscape:path-effect
       effect="bspline"
       id="path-effect909"
       is_visible="true"
       weight="33.333333"
       steps="2"
       helper_size="0"
       apply_no_weight="true"
       apply_with_weight="true"
       only_selected="false" />
    <inkscape:path-effect
       effect="bspline"
       id="path-effect905"
       is_visible="true"
       weight="33.333333"
       steps="2"
       helper_size="0"
       apply_no_weight="true"
       apply_with_weight="true"
       only_selected="false" />
    <inkscape:path-effect
       only_selected="false"
       apply_with_weight="true"
       apply_no_weight="true"
       helper_size="0"
       steps="2"
       weight="33.333333"
       is_visible="true"
       id="path-effect990"
       effect="bspline" />
    <inkscape:path-effect
       only_selected="false"
       apply_with_weight="true"
       apply_no_weight="true"
       helper_size="0"
       steps="2"
       weight="33.333333"
       is_visible="true"
       id="path-effect986"
       effect="bspline" />
    <inkscape:path-effect
       effect="bspline"
       id="path-effect982"
       is_visible="true"
       weight="33.333333"
       steps="2"
       helper_size="0"
       apply_no_weight="true"
       apply_with_weight="true"
       only_selected="false" />
    <linearGradient
       id="estimates-light"
       osb:paint="solid"
       gradientTransform="translate(-470.19476,-79.784865)">
      <stop
         style="stop-color:#ffbcbc;stop-opacity:1;"
         offset="0"
         id="stop879" />
    </linearGradient>
    <linearGradient
       id="fit-light"
       osb:paint="solid"
       gradientTransform="translate(-820.98758,-79.784865)">
      <stop
         style="stop-color:#9becff;stop-opacity:1;"
         offset="0"
         id="stop873" />
    </linearGradient>
    <linearGradient
       id="dataset-light"
       osb:paint="solid"
       gradientTransform="translate(-822.95689,-79.784865)">
      <stop
         style="stop-color:#e0c9ff;stop-opacity:1;"
         offset="0"
         id="stop867" />
    </linearGradient>
    <linearGradient
       id="params-light"
       osb:paint="solid"
       gradientTransform="translate(-704.5833,-68.387027)">
      <stop
         style="stop-color:#c7ffc7;stop-opacity:1;"
         offset="0"
         id="stop861" />
    </linearGradient>
    <linearGradient
       id="estimates"
       osb:paint="solid"
       gradientTransform="translate(-67.170676,-11.397838)">
      <stop
         style="stop-color:#ff5555;stop-opacity:1;"
         offset="0"
         id="stop855" />
    </linearGradient>
    <linearGradient
       id="fit"
       osb:paint="solid"
       gradientTransform="translate(-67.170676,-11.397838)">
      <stop
         style="stop-color:#00ccff;stop-opacity:1;"
         offset="0"
         id="stop849" />
    </linearGradient>
    <linearGradient
       id="dataset"
       osb:paint="solid"
       gradientTransform="translate(-67.170676,-11.397838)">
      <stop
         style="stop-color:#b180fa;stop-opacity:1;"
         offset="0"
         id="stop843" />
    </linearGradient>
    <linearGradient
       id="params"
       osb:paint="solid"
       gradientTransform="translate(-67.170676,-11.397838)">
      <stop
         style="stop-color:#00ff00;stop-opacity:1;"
         offset="0"
         id="stop831" />
    </linearGradient>
    <linearGradient
       inkscape:collect="always"
       xlink:href="#params-light"
       id="linearGradient865"
       x1="8.7094355"
       y1="28.104937"
       x2="57.814373"
       y2="28.104937"
       gradientUnits="userSpaceOnUse"
       gradientTransform="translate(-67.170676,-11.397838)" />
    <linearGradient
       inkscape:collect="always"
       xlink:href="#dataset-light"
       id="linearGradient871"
       x1="58.960545"
       y1="28.104937"
       x2="108.06548"
       y2="28.104937"
       gradientUnits="userSpaceOnUse"
       gradientTransform="translate(-67.170676,-11.397838)" />
  </defs>
  <sodipodi:namedview
     id="base"
     pagecolor="#ffffff"
     bordercolor="#666666"
     borderopacity="1.0"
     inkscape:pageopacity="0.0"
     inkscape:pageshadow="2"
     inkscape:zoom="1.4287484"
     inkscape:cx="379.17461"
     inkscape:cy="294.26972"
     inkscape:document-units="mm"
     inkscape:current-layer="layer1"
     showgrid="false"
     inkscape:window-width="1920"
     inkscape:window-height="1057"
     inkscape:window-x="0"
     inkscape:window-y="0"
     inkscape:window-maximized="1"
     inkscape:snap-grids="false"
     inkscape:snap-to-guides="false"
     inkscape:snap-others="false"
     inkscape:snap-nodes="false"
     inkscape:snap-global="false"
     fit-margin-top="0"
     fit-margin-left="0"
     fit-margin-right="0"
     fit-margin-bottom="0"
     showborder="true"
     inkscape:showpageshadow="false" />
  <metadata
     id="metadata5">
    <rdf:RDF>
      <cc:Work
         rdf:about="">
        <dc:format>image/svg+xml</dc:format>
        <dc:type
           rdf:resource="http://purl.org/dc/dcmitype/StillImage" />
        <dc:title />
      </cc:Work>
    </rdf:RDF>
  </metadata>
  <g
     inkscape:label="Layer 1"
     inkscape:groupmode="layer"
     id="layer1"
     transform="translate(67.170676,11.397838)">
    <rect
       style="fill:url(#linearGradient865);fill-opacity:1;stroke:#000000;stroke-width:0.5;stroke-linecap:round;stroke-linejoin:round;stroke-miterlimit:4;stroke-dasharray:none;stroke-dashoffset:0;stroke-opacity:1"
       id="rect834"
       width="48.604939"
       height="14.559083"
       x="8.9594355"
       y="20.825396" />
    <text
       xml:space="preserve"
       style="font-style:normal;font-variant:normal;font-weight:normal;font-stretch:normal;font-size:7.05555534px;line-height:1.25;font-family:'Century Schoolbook L';-inkscape-font-specification:'Century Schoolbook L';letter-spacing:0px;word-spacing:0px;fill:#000000;fill-opacity:1;stroke:none;stroke-width:0.26458332"
       x="11.423281"
       y="30.456789"
       id="text838"><tspan
         sodipodi:role="line"
         id="tspan836"
         x="11.423281"
         y="30.456789"
         style="font-style:normal;font-variant:normal;font-weight:normal;font-stretch:normal;font-family:monospace;-inkscape-font-specification:monospace;stroke-width:0.26458332">parameters</tspan></text>
    <rect
       y="20.825396"
       x="59.210545"
       height="14.559083"
       width="48.604939"
       id="rect840"
       style="fill:url(#linearGradient871);fill-opacity:1;stroke:#000000;stroke-width:0.5;stroke-linecap:round;stroke-linejoin:round;stroke-miterlimit:4;stroke-dasharray:none;stroke-dashoffset:0;stroke-opacity:1" />
    <text
       id="text844"
       y="30.456789"
       x="68.015442"
       style="font-style:normal;font-variant:normal;font-weight:normal;font-stretch:normal;font-size:7.05555534px;line-height:1.25;font-family:'Century Schoolbook L';-inkscape-font-specification:'Century Schoolbook L';letter-spacing:0px;word-spacing:0px;fill:#000000;fill-opacity:1;stroke:none;stroke-width:0.26458332"
       xml:space="preserve"><tspan
         style="font-style:normal;font-variant:normal;font-weight:normal;font-stretch:normal;font-family:monospace;-inkscape-font-specification:monospace;stroke-width:0.26458332"
         y="30.456789"
         x="68.015442"
         id="tspan842"
         sodipodi:role="line">dataset</tspan></text>
    <rect
       y="36.442814"
       x="8.9594355"
       height="74.587303"
       width="48.604939"
       id="rect858"
       style="fill:url(#params);fill-opacity:1;stroke:#000000;stroke-width:0.5;stroke-linecap:round;stroke-linejoin:round;stroke-miterlimit:4;stroke-dasharray:none;stroke-dashoffset:0;stroke-opacity:1" />
    <rect
       style="fill:url(#dataset);fill-opacity:1;stroke:#000000;stroke-width:0.5;stroke-linecap:round;stroke-linejoin:round;stroke-miterlimit:4;stroke-dasharray:none;stroke-dashoffset:0;stroke-opacity:1"
       id="rect860"
       width="48.604939"
       height="74.587303"
       x="59.217197"
       y="36.442814" />
    <g
       id="g894">
      <path
         transform="rotate(-173.48655)"
         sodipodi:open="true"
         d="M -41.118586,-14.70462 A 18.582533,18.582533 0 0 1 -57.456191,3.741811 18.582533,18.582533 0 0 1 -77.741239,-10.24765"
         sodipodi:end="2.8993841"
         sodipodi:start="0"
         sodipodi:ry="18.582533"
         sodipodi:rx="18.582533"
         sodipodi:cy="-14.70462"
         sodipodi:cx="-59.701118"
         sodipodi:type="arc"
         id="path885"
         style="fill:none;fill-opacity:1;stroke:#000000;stroke-width:1.5;stroke-linecap:round;stroke-linejoin:round;stroke-miterlimit:4;stroke-dasharray:none;stroke-dashoffset:0;stroke-opacity:1" />
      <path
         inkscape:connector-curvature="0"
         id="path887"
         d="m 76.076981,19.000194 1.305994,-4.852893"
         style="fill:none;stroke:#000000;stroke-width:1.5;stroke-linecap:round;stroke-linejoin:miter;stroke-miterlimit:4;stroke-dasharray:none;stroke-opacity:1" />
      <path
         style="fill:none;stroke:#000000;stroke-width:1.5;stroke-linecap:round;stroke-linejoin:miter;stroke-miterlimit:4;stroke-dasharray:none;stroke-opacity:1"
         d="M 76.076982,19.000194 72.868406,15.132221"
         id="path889"
         inkscape:connector-curvature="0" />
    </g>
    <g
       id="g934">
      <path
         sodipodi:nodetypes="cc"
         inkscape:connector-curvature="0"
         id="path912"
         d="M 9.3858131,46.947827 H 57.082284"
         style="fill:none;stroke:url(#params-light);stroke-width:0.26458332px;stroke-linecap:butt;stroke-linejoin:miter;stroke-opacity:1" />
      <path
         style="fill:none;stroke:url(#params-light);stroke-width:0.26458332px;stroke-linecap:butt;stroke-linejoin:miter;stroke-opacity:1"
         d="M 9.3858131,57.615742 H 57.082284"
         id="path914"
         inkscape:connector-curvature="0"
         sodipodi:nodetypes="cc" />
      <path
         sodipodi:nodetypes="cc"
         inkscape:connector-curvature="0"
         id="path916"
         d="M 9.3858131,68.283648 H 57.082284"
         style="fill:none;stroke:url(#params-light);stroke-width:0.26458332px;stroke-linecap:butt;stroke-linejoin:miter;stroke-opacity:1" />
      <path
         style="fill:none;stroke:url(#params-light);stroke-width:0.26458332px;stroke-linecap:butt;stroke-linejoin:miter;stroke-opacity:1"
         d="M 9.3858131,78.951568 H 57.082284"
         id="path918"
         inkscape:connector-curvature="0"
         sodipodi:nodetypes="cc" />
      <path
         sodipodi:nodetypes="cc"
         inkscape:connector-curvature="0"
         id="path920"
         d="M 9.4080503,89.619469 H 57.104521"
         style="fill:none;stroke:url(#params-light);stroke-width:0.26458332px;stroke-linecap:butt;stroke-linejoin:miter;stroke-opacity:1" />
      <path
         style="fill:none;stroke:url(#params-light);stroke-width:0.26458332px;stroke-linecap:butt;stroke-linejoin:miter;stroke-opacity:1"
         d="M 9.3388852,100.2874 H 57.035356"
         id="path922"
         inkscape:connector-curvature="0"
         sodipodi:nodetypes="cc" />
    </g>
    <g
       id="g948"
       transform="translate(50.259869)"
       style="stroke:url(#dataset-light)">
      <path
         style="fill:none;stroke:url(#dataset-light);stroke-width:0.26458332px;stroke-linecap:butt;stroke-linejoin:miter;stroke-opacity:1"
         d="M 9.3858131,46.947827 H 57.082284"
         id="path936"
         inkscape:connector-curvature="0"
         sodipodi:nodetypes="cc" />
      <path
         sodipodi:nodetypes="cc"
         inkscape:connector-curvature="0"
         id="path938"
         d="M 9.3858131,57.615742 H 57.082284"
         style="fill:none;stroke:url(#dataset-light);stroke-width:0.26458332px;stroke-linecap:butt;stroke-linejoin:miter;stroke-opacity:1" />
      <path
         style="fill:none;stroke:url(#dataset-light);stroke-width:0.26458332px;stroke-linecap:butt;stroke-linejoin:miter;stroke-opacity:1"
         d="M 9.3858131,68.283648 H 57.082284"
         id="path940"
         inkscape:connector-curvature="0"
         sodipodi:nodetypes="cc" />
      <path
         sodipodi:nodetypes="cc"
         inkscape:connector-curvature="0"
         id="path942"
         d="M 9.3858131,78.951568 H 57.082284"
         style="fill:none;stroke:url(#dataset-light);stroke-width:0.26458332px;stroke-linecap:butt;stroke-linejoin:miter;stroke-opacity:1" />
      <path
         style="fill:none;stroke:url(#dataset-light);stroke-width:0.26458332px;stroke-linecap:butt;stroke-linejoin:miter;stroke-opacity:1"
         d="M 9.4080503,89.619469 H 57.104521"
         id="path944"
         inkscape:connector-curvature="0"
         sodipodi:nodetypes="cc" />
      <path
         sodipodi:nodetypes="cc"
         inkscape:connector-curvature="0"
         id="path946"
         d="M 9.3388852,100.2874 H 57.035356"
         style="fill:none;stroke:url(#dataset-light);stroke-width:0.26458332px;stroke-linecap:butt;stroke-linejoin:miter;stroke-opacity:1" />
    </g>
    <g
       id="g895"
       transform="translate(-0.97129305,1.0198502)">
      <path
         sodipodi:nodetypes="cccc"
         inkscape:original-d="M 6.3711542,37.110003 C 5.0440949,37.507935 3.7169359,37.906082 2.3891828,38.304592 3.0531917,48.835737 3.7167521,59.364229 4.3801686,69.8949 2.8760895,70.779543 1.3718328,71.664399 -0.13273238,72.549546"
         inkscape:path-effect="#path-effect982"
         inkscape:connector-curvature="0"
         id="path980"
         d="m 6.3711542,37.110003 c -1.3270084,0.398102 -2.6541674,0.796249 -2.986205,6.261 -0.3320377,5.464752 0.3315228,15.993244 -0.088645,21.700932 -0.4201674,5.707689 -1.924424,6.592545 -3.42903688,7.477611"
         style="fill:none;stroke:#000000;stroke-width:1.5;stroke-linecap:round;stroke-linejoin:miter;stroke-miterlimit:4;stroke-dasharray:none;stroke-opacity:1" />
      <path
         style="fill:none;stroke:#000000;stroke-width:1.5;stroke-linecap:round;stroke-linejoin:miter;stroke-miterlimit:4;stroke-dasharray:none;stroke-opacity:1"
         d="M 6.3711542,108.00801 C 5.0441465,107.60991 3.7169867,107.21176 3.384949,101.74701 3.0529114,96.282261 3.7164719,85.753769 3.2963045,80.046081 2.8761371,74.338392 1.3718805,73.453536 -0.13273238,72.56847"
         id="path988"
         inkscape:connector-curvature="0"
         inkscape:path-effect="#path-effect990"
         inkscape:original-d="M 6.3711542,108.00801 C 5.0440949,107.61008 3.7169359,107.21193 2.3891828,106.81342 3.0531917,96.282279 3.7167521,85.753787 4.3801686,75.223116 2.8760895,74.338473 1.3718328,73.453617 -0.13273238,72.56847"
         sodipodi:nodetypes="cccc" />
    </g>
    <text
       xml:space="preserve"
       style="font-style:normal;font-variant:normal;font-weight:normal;font-stretch:normal;font-size:8.46666622px;line-height:1;font-family:'Century Schoolbook L';-inkscape-font-specification:'Century Schoolbook L';letter-spacing:0px;word-spacing:0px;fill:#000000;fill-opacity:1;stroke:none;stroke-width:0.26458332"
       x="-34.04937"
       y="71.500298"
       id="text899"><tspan
         sodipodi:role="line"
         x="-34.04937"
         y="71.500298"
         style="text-align:center;text-anchor:middle;stroke-width:0.26458332"
         id="tspan909">one row =</tspan><tspan
         sodipodi:role="line"
         x="-34.04937"
         y="79.966965"
         style="text-align:center;text-anchor:middle;stroke-width:0.26458332"
         id="tspan930">one simulation</tspan></text>
    <text
       id="text913"
       y="-1.3392732"
       x="9.3005943"
       style="font-style:normal;font-variant:normal;font-weight:normal;font-stretch:normal;font-size:7.05555534px;line-height:1.25;font-family:'Century Schoolbook L';-inkscape-font-specification:'Century Schoolbook L';letter-spacing:0px;word-spacing:0px;fill:#000000;fill-opacity:1;stroke:none;stroke-width:0.26458332"
       xml:space="preserve"><tspan
         style="font-style:normal;font-variant:normal;font-weight:normal;font-stretch:normal;font-family:monospace;-inkscape-font-specification:monospace;stroke-width:0.26458332"
         y="-1.3392732"
         x="9.3005943"
         id="tspan911"
         sodipodi:role="line">generate_data()</tspan></text>
    <g
       id="g918"
       transform="translate(0.13183609,-0.65918043)">
      <path
         inkscape:original-d="m 53.422396,42.448143 c 2.983376,-2.64e-4 5.966487,-2.64e-4 8.94933,0"
         inkscape:path-effect="#path-effect905"
         inkscape:connector-curvature="0"
         id="path903"
         d="m 53.422396,42.448143 c 2.983376,0 5.966487,0 8.94933,0"
         style="fill:none;stroke:#000000;stroke-width:1;stroke-linecap:round;stroke-linejoin:miter;stroke-miterlimit:4;stroke-dasharray:none;stroke-opacity:1" />
      <path
         sodipodi:nodetypes="cc"
         inkscape:original-d="m 60.670421,40.537087 c 0.565425,0.632869 1.130585,1.266004 1.695481,1.899403"
         inkscape:path-effect="#path-effect909"
         inkscape:connector-curvature="0"
         id="path907"
         d="m 60.670421,40.537087 c 0.565146,0.633118 1.130306,1.266253 1.695481,1.899403"
         style="fill:none;stroke:#000000;stroke-width:1;stroke-linecap:round;stroke-linejoin:miter;stroke-miterlimit:4;stroke-dasharray:none;stroke-opacity:1" />
      <path
         style="fill:none;stroke:#000000;stroke-width:1;stroke-linecap:round;stroke-linejoin:miter;stroke-miterlimit:4;stroke-dasharray:none;stroke-opacity:1"
         d="m 60.670421,44.394156 c 0.565146,-0.633118 1.130306,-1.266253 1.695481,-1.899403"
         id="path911"
         inkscape:connector-curvature="0"
         inkscape:path-effect="#path-effect913"
         inkscape:original-d="m 60.670421,44.394156 c 0.565425,-0.632869 1.130585,-1.266004 1.695481,-1.899403"
         sodipodi:nodetypes="cc" />
    </g>
    <g
       id="g927"
       transform="translate(0.13183609,9.9756062)">
      <path
         style="fill:none;stroke:#000000;stroke-width:1;stroke-linecap:round;stroke-linejoin:miter;stroke-miterlimit:4;stroke-dasharray:none;stroke-opacity:1"
         d="m 53.422396,42.448143 c 2.983376,0 5.966487,0 8.94933,0"
         id="path921"
         inkscape:connector-curvature="0"
         inkscape:path-effect="#path-effect905"
         inkscape:original-d="m 53.422396,42.448143 c 2.983376,-2.64e-4 5.966487,-2.64e-4 8.94933,0" />
      <path
         style="fill:none;stroke:#000000;stroke-width:1;stroke-linecap:round;stroke-linejoin:miter;stroke-miterlimit:4;stroke-dasharray:none;stroke-opacity:1"
         d="m 60.670421,40.537087 c 0.565146,0.633118 1.130306,1.266253 1.695481,1.899403"
         id="path923"
         inkscape:connector-curvature="0"
         inkscape:path-effect="#path-effect909"
         inkscape:original-d="m 60.670421,40.537087 c 0.565425,0.632869 1.130585,1.266004 1.695481,1.899403"
         sodipodi:nodetypes="cc" />
      <path
         sodipodi:nodetypes="cc"
         inkscape:original-d="m 60.670421,44.394156 c 0.565425,-0.632869 1.130585,-1.266004 1.695481,-1.899403"
         inkscape:path-effect="#path-effect913"
         inkscape:connector-curvature="0"
         id="path925"
         d="m 60.670421,44.394156 c 0.565146,-0.633118 1.130306,-1.266253 1.695481,-1.899403"
         style="fill:none;stroke:#000000;stroke-width:1;stroke-linecap:round;stroke-linejoin:miter;stroke-miterlimit:4;stroke-dasharray:none;stroke-opacity:1" />
    </g>
    <g
       transform="translate(0.13183609,20.610381)"
       id="g935">
      <path
         inkscape:original-d="m 53.422396,42.448143 c 2.983376,-2.64e-4 5.966487,-2.64e-4 8.94933,0"
         inkscape:path-effect="#path-effect905"
         inkscape:connector-curvature="0"
         id="path929"
         d="m 53.422396,42.448143 c 2.983376,0 5.966487,0 8.94933,0"
         style="fill:none;stroke:#000000;stroke-width:1;stroke-linecap:round;stroke-linejoin:miter;stroke-miterlimit:4;stroke-dasharray:none;stroke-opacity:1" />
      <path
         sodipodi:nodetypes="cc"
         inkscape:original-d="m 60.670421,40.537087 c 0.565425,0.632869 1.130585,1.266004 1.695481,1.899403"
         inkscape:path-effect="#path-effect909"
         inkscape:connector-curvature="0"
         id="path931"
         d="m 60.670421,40.537087 c 0.565146,0.633118 1.130306,1.266253 1.695481,1.899403"
         style="fill:none;stroke:#000000;stroke-width:1;stroke-linecap:round;stroke-linejoin:miter;stroke-miterlimit:4;stroke-dasharray:none;stroke-opacity:1" />
      <path
         style="fill:none;stroke:#000000;stroke-width:1;stroke-linecap:round;stroke-linejoin:miter;stroke-miterlimit:4;stroke-dasharray:none;stroke-opacity:1"
         d="m 60.670421,44.394156 c 0.565146,-0.633118 1.130306,-1.266253 1.695481,-1.899403"
         id="path933"
         inkscape:connector-curvature="0"
         inkscape:path-effect="#path-effect913"
         inkscape:original-d="m 60.670421,44.394156 c 0.565425,-0.632869 1.130585,-1.266004 1.695481,-1.899403"
         sodipodi:nodetypes="cc" />
    </g>
    <g
       id="g943"
       transform="translate(0.13183609,31.245157)">
      <path
         style="fill:none;stroke:#000000;stroke-width:1;stroke-linecap:round;stroke-linejoin:miter;stroke-miterlimit:4;stroke-dasharray:none;stroke-opacity:1"
         d="m 53.422396,42.448143 c 2.983376,0 5.966487,0 8.94933,0"
         id="path937"
         inkscape:connector-curvature="0"
         inkscape:path-effect="#path-effect905"
         inkscape:original-d="m 53.422396,42.448143 c 2.983376,-2.64e-4 5.966487,-2.64e-4 8.94933,0" />
      <path
         style="fill:none;stroke:#000000;stroke-width:1;stroke-linecap:round;stroke-linejoin:miter;stroke-miterlimit:4;stroke-dasharray:none;stroke-opacity:1"
         d="m 60.670421,40.537087 c 0.565146,0.633118 1.130306,1.266253 1.695481,1.899403"
         id="path939"
         inkscape:connector-curvature="0"
         inkscape:path-effect="#path-effect909"
         inkscape:original-d="m 60.670421,40.537087 c 0.565425,0.632869 1.130585,1.266004 1.695481,1.899403"
         sodipodi:nodetypes="cc" />
      <path
         sodipodi:nodetypes="cc"
         inkscape:original-d="m 60.670421,44.394156 c 0.565425,-0.632869 1.130585,-1.266004 1.695481,-1.899403"
         inkscape:path-effect="#path-effect913"
         inkscape:connector-curvature="0"
         id="path941"
         d="m 60.670421,44.394156 c 0.565146,-0.633118 1.130306,-1.266253 1.695481,-1.899403"
         style="fill:none;stroke:#000000;stroke-width:1;stroke-linecap:round;stroke-linejoin:miter;stroke-miterlimit:4;stroke-dasharray:none;stroke-opacity:1" />
    </g>
    <g
       transform="translate(0.13183609,41.879932)"
       id="g951">
      <path
         inkscape:original-d="m 53.422396,42.448143 c 2.983376,-2.64e-4 5.966487,-2.64e-4 8.94933,0"
         inkscape:path-effect="#path-effect905"
         inkscape:connector-curvature="0"
         id="path945"
         d="m 53.422396,42.448143 c 2.983376,0 5.966487,0 8.94933,0"
         style="fill:none;stroke:#000000;stroke-width:1;stroke-linecap:round;stroke-linejoin:miter;stroke-miterlimit:4;stroke-dasharray:none;stroke-opacity:1" />
      <path
         sodipodi:nodetypes="cc"
         inkscape:original-d="m 60.670421,40.537087 c 0.565425,0.632869 1.130585,1.266004 1.695481,1.899403"
         inkscape:path-effect="#path-effect909"
         inkscape:connector-curvature="0"
         id="path947"
         d="m 60.670421,40.537087 c 0.565146,0.633118 1.130306,1.266253 1.695481,1.899403"
         style="fill:none;stroke:#000000;stroke-width:1;stroke-linecap:round;stroke-linejoin:miter;stroke-miterlimit:4;stroke-dasharray:none;stroke-opacity:1" />
      <path
         style="fill:none;stroke:#000000;stroke-width:1;stroke-linecap:round;stroke-linejoin:miter;stroke-miterlimit:4;stroke-dasharray:none;stroke-opacity:1"
         d="m 60.670421,44.394156 c 0.565146,-0.633118 1.130306,-1.266253 1.695481,-1.899403"
         id="path949"
         inkscape:connector-curvature="0"
         inkscape:path-effect="#path-effect913"
         inkscape:original-d="m 60.670421,44.394156 c 0.565425,-0.632869 1.130585,-1.266004 1.695481,-1.899403"
         sodipodi:nodetypes="cc" />
    </g>
    <g
       id="g959"
       transform="translate(0.13183609,52.514707)">
      <path
         style="fill:none;stroke:#000000;stroke-width:1;stroke-linecap:round;stroke-linejoin:miter;stroke-miterlimit:4;stroke-dasharray:none;stroke-opacity:1"
         d="m 53.422396,42.448143 c 2.983376,0 5.966487,0 8.94933,0"
         id="path953"
         inkscape:connector-curvature="0"
         inkscape:path-effect="#path-effect905"
         inkscape:original-d="m 53.422396,42.448143 c 2.983376,-2.64e-4 5.966487,-2.64e-4 8.94933,0" />
      <path
         style="fill:none;stroke:#000000;stroke-width:1;stroke-linecap:round;stroke-linejoin:miter;stroke-miterlimit:4;stroke-dasharray:none;stroke-opacity:1"
         d="m 60.670421,40.537087 c 0.565146,0.633118 1.130306,1.266253 1.695481,1.899403"
         id="path955"
         inkscape:connector-curvature="0"
         inkscape:path-effect="#path-effect909"
         inkscape:original-d="m 60.670421,40.537087 c 0.565425,0.632869 1.130585,1.266004 1.695481,1.899403"
         sodipodi:nodetypes="cc" />
      <path
         sodipodi:nodetypes="cc"
         inkscape:original-d="m 60.670421,44.394156 c 0.565425,-0.632869 1.130585,-1.266004 1.695481,-1.899403"
         inkscape:path-effect="#path-effect913"
         inkscape:connector-curvature="0"
         id="path957"
         d="m 60.670421,44.394156 c 0.565146,-0.633118 1.130306,-1.266253 1.695481,-1.899403"
         style="fill:none;stroke:#000000;stroke-width:1;stroke-linecap:round;stroke-linejoin:miter;stroke-miterlimit:4;stroke-dasharray:none;stroke-opacity:1" />
    </g>
    <g
       transform="translate(0.13183609,63.149485)"
       id="g967">
      <path
         inkscape:original-d="m 53.422396,42.448143 c 2.983376,-2.64e-4 5.966487,-2.64e-4 8.94933,0"
         inkscape:path-effect="#path-effect905"
         inkscape:connector-curvature="0"
         id="path961"
         d="m 53.422396,42.448143 c 2.983376,0 5.966487,0 8.94933,0"
         style="fill:none;stroke:#000000;stroke-width:1;stroke-linecap:round;stroke-linejoin:miter;stroke-miterlimit:4;stroke-dasharray:none;stroke-opacity:1" />
      <path
         sodipodi:nodetypes="cc"
         inkscape:original-d="m 60.670421,40.537087 c 0.565425,0.632869 1.130585,1.266004 1.695481,1.899403"
         inkscape:path-effect="#path-effect909"
         inkscape:connector-curvature="0"
         id="path963"
         d="m 60.670421,40.537087 c 0.565146,0.633118 1.130306,1.266253 1.695481,1.899403"
         style="fill:none;stroke:#000000;stroke-width:1;stroke-linecap:round;stroke-linejoin:miter;stroke-miterlimit:4;stroke-dasharray:none;stroke-opacity:1" />
      <path
         style="fill:none;stroke:#000000;stroke-width:1;stroke-linecap:round;stroke-linejoin:miter;stroke-miterlimit:4;stroke-dasharray:none;stroke-opacity:1"
         d="m 60.670421,44.394156 c 0.565146,-0.633118 1.130306,-1.266253 1.695481,-1.899403"
         id="path965"
         inkscape:connector-curvature="0"
         inkscape:path-effect="#path-effect913"
         inkscape:original-d="m 60.670421,44.394156 c 0.565425,-0.632869 1.130585,-1.266004 1.695481,-1.899403"
         sodipodi:nodetypes="cc" />
    </g>
    <rect
       style="fill:none;fill-opacity:1;stroke:#000000;stroke-width:0.30000001;stroke-linecap:round;stroke-linejoin:round;stroke-miterlimit:4;stroke-dasharray:none;stroke-dashoffset:0;stroke-opacity:1"
       id="rect1081"
       width="292.34479"
       height="128.27373"
       x="-67.020676"
       y="-11.247838" />
  </g>
</svg>
